{
 "actions": [],
 "autoname": "field:br_name_comp_role",
 "creation": "2022-08-25 14:15:41.440216",
 "doctype": "DocType",
 "engine": "InnoDB",
 "field_order": [
  "prefix",
  "br_name",
  "full_name_display",
  "title_vn",
  "title_en",
  "nationality",
  "column_break_7",
  "company",
  "role",
  "authorized_by",
  "valid_from",
  "valid_to",
  "status",
  "document",
  "br_name_comp_role"
 ],
 "fields": [
  {
   "fieldname": "title_vn",
   "fieldtype": "Data",
   "in_list_view": 1,
   "label": "Title (VN)",
   "reqd": 1
  },
  {
   "fieldname": "title_en",
   "fieldtype": "Data",
   "in_list_view": 1,
   "label": "Title (EN)",
   "reqd": 1
  },
  {
   "fieldname": "nationality",
   "fieldtype": "Link",
   "label": "Nationality",
   "options": "Country",
   "reqd": 1
  },
  {
   "fieldname": "valid_from",
   "fieldtype": "Date",
   "in_list_view": 1,
   "label": "Valid From",
   "reqd": 1
  },
  {
   "fieldname": "valid_to",
   "fieldtype": "Date",
   "label": "Valid To"
  },
  {
   "fieldname": "status",
   "fieldtype": "Read Only",
   "in_list_view": 1,
   "label": "Status"
  },
  {
   "fieldname": "document",
   "fieldtype": "Attach",
   "label": "Document"
  },
  {
   "fieldname": "prefix",
   "fieldtype": "Select",
   "label": "Prefix",
   "options": "\nMr.\nMrs.\nMiss",
   "reqd": 1
  },
  {
   "fieldname": "column_break_7",
   "fieldtype": "Column Break"
  },
  {
   "fetch_from": "br_name.full_name",
   "fieldname": "full_name_display",
   "fieldtype": "Read Only",
   "label": "Full Name"
  },
  {
   "fieldname": "br_name",
   "fieldtype": "Link",
   "in_list_view": 1,
   "label": "Business Representative/Authorizing Person",
   "options": "Employee",
   "reqd": 1
  },
  {
   "fieldname": "role",
   "fieldtype": "Select",
   "in_list_view": 1,
   "label": "Role",
   "options": "\nBusiness Representative\nAuthorizing Person",
   "reqd": 1
  },
  {
   "fieldname": "authorized_by",
   "fieldtype": "Link",
   "label": "Authorized By",
   "options": "Business Representative"
  },
  {
   "fieldname": "company",
   "fieldtype": "Link",
   "label": "Company",
   "options": "Company",
   "reqd": 1
  },
  {
   "fieldname": "br_name_comp_role",
   "fieldtype": "Read Only",
   "hidden": 1,
   "label": "BR name - company - role",
   "unique": 1
  }
 ],
 "index_web_pages_for_search": 1,
 "links": [],
 "modified": "2022-10-10 15:19:13.337431",
 "modified_by": "Administrator",
 "module": "Human Capital Management System",
 "name": "Business Representative",
 "naming_rule": "By fieldname",
 "owner": "Administrator",
 "permissions": [
  {
   "create": 1,
   "delete": 1,
   "email": 1,
   "export": 1,
   "print": 1,
   "read": 1,
   "report": 1,
   "role": "System Manager",
   "share": 1,
   "write": 1
  },
  {
   "create": 1,
   "delete": 1,
   "email": 1,
   "export": 1,
   "print": 1,
   "read": 1,
   "report": 1,
   "role": "HR Director",
   "share": 1,
   "write": 1
  }
 ],
 "sort_field": "modified",
 "sort_order": "DESC",
 "states": [],
 "title_field": "br_name_comp_role",
 "track_changes": 1
}