{
 "add_total_row": 0,
 "columns": [],
 "creation": "2022-08-29 23:47:33.521238",
 "disable_prepared_report": 0,
 "disabled": 0,
 "docstatus": 0,
 "doctype": "Report",
 "filters": [],
 "idx": 0,
 "is_standard": "Yes",
 "json": "{}",
 "modified": "2022-08-29 23:47:33.521238",
 "modified_by": "Administrator",
 "module": "Human Capital Management System",
 "name": "Company",
 "owner": "Administrator",
 "prepared_report": 0,
 "ref_doctype": "Company",
 "report_name": "Company",
 "report_type": "Report Builder",
 "roles": [
  {
   "role": "System Manager"
  }
 ]
}